[
 {
  "COD": "1270",
  "PREGUNTA": "Se\u00f1ale la afirmaci\u00f3n correcta referida a las personas mayores como conductores:",
  "A": "En las \u00faltimas d\u00e9cadas, la poblaci\u00f3n de conductores mayores de 65 a\u00f1os ha aumentado notablemente.",
  "B": "Se acent\u00faa la p\u00e9rdida de capacidades psicomotoras.",
  "C": "No se les tiene en cuenta a la hora del dise\u00f1o de la se\u00f1alizaci\u00f3n vertical y la del propio veh\u00edculo.",
  "D": "Todas las respuestas anteriores son correctas.",
  "SOLUCION": "D",
  "RULE": "Sin referencia",
  "REFERENCIA_DOCTRINAL": "Programa de Intervenci\u00f3n, Sensibilizaci\u00f3n y Reeducaci\u00f3n Vial - Manual del formador. Direcci\u00f3n General de Tr\u00e1fico - INTRAS"
 },
 {
  "COD": "1927",
  "PREGUNTA": "\u00bfCu\u00e1l de las siguientes conductas est\u00e1 presente con menos frecuencia en accidentes de tr\u00e1fico?",
  "A": "Conducir utilizando incorrectamente la se\u00f1alizaci\u00f3n o los elementos de seguridad de los veh\u00edculos.",
  "B": "Circular con exceso de lentitud.",
  "C": "Circular con fatiga o somnolencia, con falta de atenci\u00f3n o con distracciones durante la conducci\u00f3n.",
  "D": "Conducir sin respetar la se\u00f1alizaci\u00f3n viaria.",
  "SOLUCION": "B",
  "RULE": "Sin referencia",
  "REFERENCIA_DOCTRINAL": "Estad\u00edstica de Accidentes de Tr\u00e1fico. Direcci\u00f3n General de Tr\u00e1fico."
 },
 {
  "COD": "1928",
  "PREGUNTA": "\u00bfCu\u00e1l de las siguientes conductas est\u00e1 presente con menos frecuencia en accidentes de tr\u00e1fico?",
  "A": "Conducir sin respetar la se\u00f1alizaci\u00f3n viaria.",
  "B": "Conducir durante la noche distancias largas.",
  "C": "Circular a una velocidad inadecuada o peligrosa.",
  "D": "Conducir bajo los efectos del alcohol o de drogas t\u00f3xicas o estupefacientes.",
  "SOLUCION": "B",
  "RULE": "Sin referencia",
  "REFERENCIA_DOCTRINAL": "Estad\u00edstica de Accidentes de Tr\u00e1fico. Direcci\u00f3n General de Tr\u00e1fico."
 },
 {
  "COD": "5186",
  "PREGUNTA": "\u00bfCu\u00e1les suelen ser las coordenadas espaciotemporales del accidente del conductor joven?",
  "A": "En d\u00edas laborables.",
  "B": "En primavera.",
  "C": "Desplazamientos cortos en carreteras secundarias.",
  "D": "En autopistas de peaje.",
  "SOLUCION": "C",
  "RULE": "Sin referencia",
  "REFERENCIA_DOCTRINAL": "Estad\u00edstica de Accidentes de Tr\u00e1fico. Direcci\u00f3n General de Tr\u00e1fico."
 },
 {
  "COD": "5187",
  "PREGUNTA": "\u00bfA partir de qu\u00e9 a\u00f1o de conducir existe un mayor riesgo para el conductor joven?",
  "A": "En el primer a\u00f1o porque es un conductor inexperto.",
  "B": "A partir del d\u00e9cimo a\u00f1o.",
  "C": "A partir del vig\u00e9simo a\u00f1o.",
  "D": "A partir del segundo a\u00f1o porque tiene m\u00e1s sensaci\u00f3n de seguridad en la conducci\u00f3n.",
  "SOLUCION": "D",
  "RULE": "Sin referencia",
  "REFERENCIA_DOCTRINAL": "Programa de Intervenci\u00f3n, Sensibilizaci\u00f3n y Reeducaci\u00f3n Vial - Manual del formador. Direcci\u00f3n General de Tr\u00e1fico - INTRAS"
 },
 {
  "COD": "5379",
  "PREGUNTA": "\u00bfQu\u00e9 tipos de plantas producen la alergia por p\u00f3lenes?",
  "A": "Las gram\u00edneas.",
  "B": "Los \u00e1rboles.",
  "C": "Las malezas.",
  "D": "Todas las respuestas anteriores son correctas.",
  "SOLUCION": "D",
  "RULE": "Sin referencia",
  "REFERENCIA_DOCTRINAL": "Programa de Intervenci\u00f3n, Sensibilizaci\u00f3n y Reeducaci\u00f3n Vial - Manual del formador. Direcci\u00f3n General de Tr\u00e1fico - INTRAS"
 },
 {
  "COD": "5622",
  "PREGUNTA": "\u00bfQu\u00e9 materias regula el Texto Articulado de la Ley sobre Tr\u00e1fico, Circulaci\u00f3n de Veh\u00edculos a Motor y Seguridad Vial?",
  "A": "Las infracciones en materias de transporte terrestre.",
  "B": "Los criterios de se\u00f1alizaci\u00f3n de las v\u00edas de utilizaci\u00f3n general.",
  "C": "El dise\u00f1o de las carreteras.",
  "D": "El concurso de acreedores.",
  "SOLUCION": "B",
  "RULE": "RD Legislativo jun.-15 Art. 1.2.d",
  "REFERENCIA_DOCTRINAL": ""
 },
 {
  "COD": "5626",
  "PREGUNTA": "De las siguientes conductas, \u00bfcu\u00e1l suele ser responsable de la mayor\u00eda de los accidentes de tr\u00e1fico?",
  "A": "Circular dentro de los l\u00edmites de velocidad.",
  "B": "Circular respetando la se\u00f1alizaci\u00f3n viaria.",
  "C": "Circular utilizando correctamente la se\u00f1alizaci\u00f3n del veh\u00edculo.",
  "D": "Circular con fatiga o somnolencia.",
  "SOLUCION": "D",
  "RULE": "Sin referencia",
  "REFERENCIA_DOCTRINAL": "Estad\u00edstica de Accidentes de Tr\u00e1fico. Direcci\u00f3n General de Tr\u00e1fico."
 }
]