[
 {
  "COD": "262",
  "PREGUNTA": "\u00bfQu\u00e9 debemos hacer ante una hemorragia en la pierna?",
  "A": "Presionar la arteria humeral.",
  "B": "Presionar la arteria femoral.",
  "C": "Elevar el brazo.",
  "D": "Presionar una pierna con la otra.",
  "SOLUCION": "B",
  "RULE": "Sin referencia",
  "REFERENCIA_DOCTRINAL": "Manual b\u00e1sico de primeros auxilios. Cruz Roja Espa\u00f1ola"
 },
 {
  "COD": "2546",
  "PREGUNTA": "En relaci\u00f3n con el auxilio a los heridos de un accidente de tr\u00e1fico, se\u00f1ale cu\u00e1l de las siguientes afirmaciones es incorrecta.",
  "A": "Si, una vez abierta y limpia la v\u00eda a\u00e9rea, tras 10 segundos comprobamos que sigue sin respirar, practicaremos la respiraci\u00f3n artificial.",
  "B": "En caso de no tener pulso, se debe efectuar la respiraci\u00f3n artificial.",
  "C": "Nunca debemos actuar nosotros ante una hemorragia, debe hacerlo solo personal especializado.",
  "D": "Si hay signos de traumatismo por encima de la clav\u00edcula, no se debe mover el cuello del accidentado.",
  "SOLUCION": "C",
  "RULE": "Sin referencia",
  "REFERENCIA_DOCTRINAL": "Manual b\u00e1sico de primeros auxilios. Cruz Roja Espa\u00f1ola"
 },
 {
  "COD": "3422",
  "PREGUNTA": "\u00bfCu\u00e1l es la posici\u00f3n en la que debemos colocar a un herido que pensamos que puede estar sufriendo un shock hipovol\u00e9mico?",
  "A": "Boca arriba.",
  "B": "Boca abajo.",
  "C": "Con la cabeza por debajo del resto del cuerpo.",
  "D": "Con la cabeza por encima del resto del cuerpo.",
  "SOLUCION": "C",
  "RULE": "Sin referencia",
  "REFERENCIA_DOCTRINAL": "Manual b\u00e1sico de primeros auxilios. Cruz Roja Espa\u00f1ola"
 },
 {
  "COD": "5035",
  "PREGUNTA": "\u00bfC\u00f3mo se debe colocar la mano para realizar la respiraci\u00f3n artificial?",
  "A": "Sobre la frente para empujarla hacia atr\u00e1s.",
  "B": "Bajo la nuca para empujar hacia abajo.",
  "C": "Sobre la frente para empujar hacia delante.",
  "D": "Bajo la nuca para empujar hacia arriba.",
  "SOLUCION": "A",
  "RULE": "Sin referencia",
  "REFERENCIA_DOCTRINAL": "Manual b\u00e1sico de primeros auxilios. Cruz Roja Espa\u00f1ola"
 },
 {
  "COD": "5221",
  "PREGUNTA": "\u00bfA qu\u00e9 tipo de heridos no hay que moverles el cuello?",
  "A": "A los que tienen fracturas de pelvis.",
  "B": "A los heridos sin pulso.",
  "C": "A los quemados.",
  "D": "A los que dicen que no pueden mover alguna parte de su cuerpo.",
  "SOLUCION": "D",
  "RULE": "Sin referencia",
  "REFERENCIA_DOCTRINAL": "Manual b\u00e1sico de primeros auxilios. Cruz Roja Espa\u00f1ola"
 },
 {
  "COD": "66246",
  "PREGUNTA": "Si un conductor de autob\u00fas se encuentra en la carretera con un accidente de tr\u00e1fico, \u00bfest\u00e1 obligado a parar y ayudar a las v\u00edctimas?",
  "A": "No, salvo que su veh\u00edculo se vea implicado en el accidente.",
  "B": "Solo si no lleva pasajeros.",
  "C": "S\u00ed.",
  "D": "No est\u00e1 legalmente obligado, pero es una obligaci\u00f3n moral.",
  "SOLUCION": "C",
  "RULE": "RD Legislativo 6/2015 51",
  "REFERENCIA_DOCTRINAL": ""
 },
 {
  "COD": "66247",
  "PREGUNTA": "En un accidente de tr\u00e1fico con heridos graves:",
  "A": "No se debe intervenir nunca sin presencia policial para no alterar las pruebas.",
  "B": "Se debe ayudar a los heridos, pero siempre sin moverlos de donde est\u00e9n para no alterar las cosas.",
  "C": "Se evitar\u00e1 modificar las cosas, salvo que se perjudique la seguridad de los heridos.",
  "D": "Se puede actuar sin ninguna precauci\u00f3n especial, salvo que  haya muertos.",
  "SOLUCION": "C",
  "RULE": "RD 1428/2003 129",
  "REFERENCIA_DOCTRINAL": ""
 },
 {
  "COD": "66248",
  "PREGUNTA": "\u00bfHay que avisar a los agentes de la autoridad si nos vemos implicados en un accidente de tr\u00e1fico?",
  "A": "S\u00ed, cuando haya muertos o heridos graves.",
  "B": "Solo es obligatorio cuando haya muertos.",
  "C": "S\u00ed, es siempre obligatorio.",
  "D": "No es obligatorio, pero se recomienda hacerlo para que garanticen la seguridad del tr\u00e1fico en la zona.",
  "SOLUCION": "A",
  "RULE": "RD 1428/2003 129",
  "REFERENCIA_DOCTRINAL": ""
 },
 {
  "COD": "66249",
  "PREGUNTA": "\u00bfHay que permanecer en el lugar donde se haya producido un accidente de tr\u00e1fico con heridos graves en el que estamos implicados?",
  "A": "Siempre.",
  "B": "No es obligatorio si dejamos nuestros datos de identificaci\u00f3n y de contacto.",
  "C": "S\u00ed, salvo que los agentes de la autoridad nos permitan marcharnos o dejemos el lugar para atender a heridos o para ser nosotros atendidos. ",
  "D": "No, cuando nuestro veh\u00edculo no haya sufrido da\u00f1os importantes.",
  "SOLUCION": "C",
  "RULE": "RD 1428/2003 129",
  "REFERENCIA_DOCTRINAL": ""
 },
 {
  "COD": "66250",
  "PREGUNTA": "\u00bfHay que permanecer en el lugar donde se haya producido un accidente de tr\u00e1fico con heridos leves en el que estamos implicados?",
  "A": "Siempre.",
  "B": "No, cuando la seguridad de la circulaci\u00f3n est\u00e9 restablecida y ninguno de los implicados lo solicite.",
  "C": "No es obligatorio nunca si dejamos nuestros datos de identificaci\u00f3n y de contacto.",
  "D": "No, cuando nuestro veh\u00edculo no haya sufrido da\u00f1os importantes.",
  "SOLUCION": "B",
  "RULE": "RD 1428/2003 129",
  "REFERENCIA_DOCTRINAL": ""
 },
 {
  "COD": "66251",
  "PREGUNTA": "\u00bfEs obligatorio comunicar nuestra identidad si nos vemos implicados en un accidente de tr\u00e1fico?",
  "A": "S\u00ed, a todos los dem\u00e1s implicados.",
  "B": "S\u00ed, a los restantes implicados que lo soliciten.",
  "C": "Solo a los agentes de seguridad.",
  "D": "No, basta con facilitar la matr\u00edcula del veh\u00edculo.",
  "SOLUCION": "B",
  "RULE": "RD 1428/2003 129",
  "REFERENCIA_DOCTRINAL": ""
 },
 {
  "COD": "66252",
  "PREGUNTA": "\u00bfEs obligatorio comunicar los datos de nuestro veh\u00edculo si nos vemos implicados en un accidente de tr\u00e1fico?",
  "A": "S\u00ed, a todos los dem\u00e1s implicados.",
  "B": "S\u00ed, a los restantes implicados que lo soliciten.",
  "C": "Solo a los agentes de seguridad.",
  "D": "No, basta con facilitar nuestra identidad.",
  "SOLUCION": "B",
  "RULE": "RD 1428/2003 129",
  "REFERENCIA_DOCTRINAL": ""
 },
 {
  "COD": "66253",
  "PREGUNTA": "En caso de accidente de tr\u00e1fico, el C\u00f3digo Penal considera delito:",
  "A": "la omisi\u00f3n del deber de socorro.",
  "B": "el abandono del lugar del accidente, aunque no se haya faltado al deber de socorro, cuando se sea causa del accidente y haya heridos.",
  "C": "el abandono del lugar del accidente, aunque no se haya faltado al deber de socorro, en todos los casos.",
  "D": "Las respuestas A y B son correctas.",
  "SOLUCION": "D",
  "RULE": "Ley Org\u00e1nica 10/1995 195; Ley Org\u00e1nica 10/1995 382 bis",
  "REFERENCIA_DOCTRINAL": ""
 },
 {
  "COD": "66254",
  "PREGUNTA": "En caso de accidente de tr\u00e1fico, incurre en el delito de omisi\u00f3n del deber de socorro:",
  "A": "el que no ayude a un afectado que se encuentre en peligro grave y manifiesto, pudiendo hacerlo sin riesgo propio ni de terceros.",
  "B": "el que no ayude a cualquier afectado por el accidente, pudiendo hacerlo sin riesgo propio ni de terceros.",
  "C": "el que no ayude a un afectado por el accidente, pero solo si \u00e9l ha sido causa de dicho accidente.",
  "D": "el que no ayude a un afectado por el accidente, pero solo si \u00e9l ha estado implicado en dicho accidente.",
  "SOLUCION": "A",
  "RULE": "Ley Org\u00e1nica 10/1995 195",
  "REFERENCIA_DOCTRINAL": ""
 },
 {
  "COD": "66255",
  "PREGUNTA": "En caso de accidente de tr\u00e1fico, incurre en el delito de omisi\u00f3n del deber de socorro:",
  "A": "el que no ayude a un afectado que se encuentre en peligro grave y manifiesto, pudiendo hacerlo sin riesgo propio ni de terceros.",
  "B": "el que, en caso de peligro grave y manifiesto, no solicite ayuda ajena con urgencia si no puede prestarla personalmente.",
  "C": "el que no ayude a un afectado por el accidente o no solicite ayuda ajena con urgencia, pero solo si \u00e9l ha sido causa de dicho accidente.",
  "D": "Las respuestas A y B son correctas.",
  "SOLUCION": "D",
  "RULE": "Ley Org\u00e1nica 10/1995 195",
  "REFERENCIA_DOCTRINAL": ""
 },
 {
  "COD": "66256",
  "PREGUNTA": "En caso de accidente de tr\u00e1fico, incurre en el delito de abandono del lugar del accidente:",
  "A": "quien, habiendo presenciado el accidente, abandone el lugar si no hab\u00eda riesgo de permanecer en \u00e9l.",
  "B": "quien, habiendo presenciado el accidente, abandone el lugar, pero solo si hay heridos y no hab\u00eda riesgo de permanecer all\u00ed.",
  "C": "quien, habiendo causado el accidente, abandone el lugar, pero solo si hay heridos y no hab\u00eda riesgo de permanecer all\u00ed.",
  "D": "Las respuestas B y C son correctas.",
  "SOLUCION": "C",
  "RULE": "Ley Org\u00e1nica 10/1995 382 bis",
  "REFERENCIA_DOCTRINAL": ""
 },
 {
  "COD": "66257",
  "PREGUNTA": "En la atenci\u00f3n a heridos en accidente de tr\u00e1fico la regla general es:",
  "A": "sacarlos cuanto antes del veh\u00edculo para que puedan estar recostados o tumbados.",
  "B": "sacarlos cuanto antes del veh\u00edculo si se trata de ancianos o personas con movilidad reducida.",
  "C": "no moverlos, salvo que est\u00e9 en peligro su vida.",
  "D": "no moverlos en ning\u00fan caso para no provocarles una lesi\u00f3n de m\u00e9dula.",
  "SOLUCION": "C",
  "RULE": "Sin referencia",
  "REFERENCIA_DOCTRINAL": "Programa de Intervenci\u00f3n, Sensibilizaci\u00f3n y Reeducaci\u00f3n Vial - Manual del formador. Direcci\u00f3n General de Tr\u00e1fico - INTRAS"
 },
 {
  "COD": "66258",
  "PREGUNTA": "\u00bfQu\u00e9 implica mantener el eje cabeza-cuello-tronco al mover a un herido en accidente de tr\u00e1fico?",
  "A": "Que no pueden ser movidos en ning\u00fan caso.",
  "B": "Que para moverlos hay que evitar desplazamientos de la cabeza o del cuello respecto del tronco.",
  "C": "Que para moverlos hay que hacerlo en bloque.",
  "D": "Las respuestas B y C son correctas.",
  "SOLUCION": "D",
  "RULE": "Sin referencia",
  "REFERENCIA_DOCTRINAL": "Programa de Intervenci\u00f3n, Sensibilizaci\u00f3n y Reeducaci\u00f3n Vial - Manual del formador. Direcci\u00f3n General de Tr\u00e1fico - INTRAS"
 },
 {
  "COD": "66259",
  "PREGUNTA": "\u00bfPor qu\u00e9 hay que mantener el eje cabeza-cuello-tronco al mover a un herido en accidente de tr\u00e1fico?",
  "A": "Para que no vomiten.",
  "B": "Para no provocarles lesiones de m\u00e9dula.",
  "C": "Para que no se mareen.",
  "D": "Para que sangren lo menos posible.",
  "SOLUCION": "B",
  "RULE": "Sin referencia",
  "REFERENCIA_DOCTRINAL": "Programa de Intervenci\u00f3n, Sensibilizaci\u00f3n y Reeducaci\u00f3n Vial - Manual del formador. Direcci\u00f3n General de Tr\u00e1fico - INTRAS"
 },
 {
  "COD": "66260",
  "PREGUNTA": "En la atenci\u00f3n a heridos en accidente de tr\u00e1fico que viajaban en moto la regla general es:",
  "A": "siempre quitarles cuanto antes el casco para que puedan respirar mejor.",
  "B": "quitarles cuanto antes el casco, si este se ha roto.",
  "C": "no quitarles el casco, salvo que sea imprescindible para atenderlos.",
  "D": "no quitarles el casco en ning\u00fan caso para no provocarles una lesi\u00f3n de m\u00e9dula.",
  "SOLUCION": "C",
  "RULE": "Sin referencia",
  "REFERENCIA_DOCTRINAL": "Programa de Intervenci\u00f3n, Sensibilizaci\u00f3n y Reeducaci\u00f3n Vial - Manual del formador. Direcci\u00f3n General de Tr\u00e1fico - INTRAS"
 },
 {
  "COD": "66261",
  "PREGUNTA": "Llevar un botiqu\u00edn de primeros auxilios con material en condiciones de uso:",
  "A": "es recomendable para todos los veh\u00edculos, aunque no obligatorio.",
  "B": "es obligatorio para los autobuses de m\u00e1s de 25 plazas, incluido el conductor.",
  "C": "es obligatorio para todos los autobuses.",
  "D": "es obligatorio para todos los veh\u00edculos.",
  "SOLUCION": "A",
  "RULE": "Sin referencia",
  "REFERENCIA_DOCTRINAL": "Manual de primeros auxilios para profesores de formaci\u00f3n vial. Direcci\u00f3n General de Tr\u00e1fico"
 },
 {
  "COD": "66262",
  "PREGUNTA": "En la prestaci\u00f3n de los primeros auxilios, la evaluaci\u00f3n inicial del herido tiene por objetivo:",
  "A": "determinar el alcance de las lesiones.",
  "B": "conseguir la presencia de una ambulancia.",
  "C": "conseguir informaci\u00f3n sobre la forma de contactar con sus allegados.",
  "D": "Todas las respuestas son correctas.",
  "SOLUCION": "A",
  "RULE": "Sin referencia",
  "REFERENCIA_DOCTRINAL": "Manual b\u00e1sico de primeros auxilios. Cruz Roja Espa\u00f1ola"
 },
 {
  "COD": "66263",
  "PREGUNTA": "En la prestaci\u00f3n de los primeros auxilios, la valoraci\u00f3n primaria del herido tiene como finalidad:",
  "A": "detectar todas sus heridas externas.",
  "B": "identificar situaciones que supongan una amenaza inmediata para su vida.",
  "C": "detectar las heridas externas m\u00e1s evidentes.",
  "D": "Las respuestas B y C son correctas.",
  "SOLUCION": "B",
  "RULE": "Sin referencia",
  "REFERENCIA_DOCTRINAL": "Manual b\u00e1sico de primeros auxilios. Cruz Roja Espa\u00f1ola"
 },
 {
  "COD": "66264",
  "PREGUNTA": "\u00bfEn qu\u00e9 aspecto se centra la valoraci\u00f3n primaria del herido al prestar los primeros auxilios?",
  "A": "Respiraci\u00f3n y movilidad de columna.",
  "B": "Consciencia, respiraci\u00f3n y movilidad de la columna.",
  "C": "Consciencia, respiraci\u00f3n y circulaci\u00f3n.",
  "D": "Nivel de consciencia, \u00fanicamente.",
  "SOLUCION": "C",
  "RULE": "Sin referencia",
  "REFERENCIA_DOCTRINAL": "Manual b\u00e1sico de primeros auxilios. Cruz Roja Espa\u00f1ola"
 },
 {
  "COD": "66265",
  "PREGUNTA": "En la prestaci\u00f3n de primeros auxilios, el primer paso de la valoraci\u00f3n primaria de un herido es:",
  "A": "determinar si respira.",
  "B": "valorar el nivel de consciencia.",
  "C": "comprobar si tiene heridas graves.",
  "D": "comprobar si tiene pulso.",
  "SOLUCION": "B",
  "RULE": "Sin referencia",
  "REFERENCIA_DOCTRINAL": "Manual b\u00e1sico de primeros auxilios. Cruz Roja Espa\u00f1ola"
 },
 {
  "COD": "66266",
  "PREGUNTA": "\u00bfQu\u00e9 t\u00e9cnica se recomienda utilizar para valorar el nivel de consciencia en un herido en accidente de tr\u00e1fico?",
  "A": "pellizcarle en el dorso de la mano.",
  "B": "sacudirlo por los hombros.",
  "C": "sacudirlo por las piernas.",
  "D": "Todas las respuestas son correctas.",
  "SOLUCION": "A",
  "RULE": "Sin referencia",
  "REFERENCIA_DOCTRINAL": "Manual de primeros auxilios para profesores de formaci\u00f3n vial. Direcci\u00f3n General de Tr\u00e1fico"
 },
 {
  "COD": "66267",
  "PREGUNTA": "En la prestaci\u00f3n de primeros auxilios, una vez hayamos determinado que el herido est\u00e1 consciente:",
  "A": "hay que pasar siempre a valorar si respira.",
  "B": "hay que pasar a valorar si respira cuando el nivel de consciencia sea bajo.",
  "C": "hay que pasar a valorar si respira cuando tenga heridas en los pulmones.",
  "D": "no es necesario pasar a valorar si respira.",
  "SOLUCION": "D",
  "RULE": "Sin referencia",
  "REFERENCIA_DOCTRINAL": "Manual de primeros auxilios para profesores de formaci\u00f3n vial. Direcci\u00f3n General de Tr\u00e1fico"
 },
 {
  "COD": "66268",
  "PREGUNTA": "\u00bfEn qu\u00e9 posici\u00f3n no se produce la obstrucci\u00f3n de la v\u00eda a\u00e9rea de un herido inconsciente por ca\u00edda de la lengua hacia atr\u00e1s?",
  "A": "Tendido boca arriba.",
  "B": "Tendido boca abajo.",
  "C": "Tendido de lado.",
  "D": "Las respuestas B y C son correctas.",
  "SOLUCION": "D",
  "RULE": "Sin referencia",
  "REFERENCIA_DOCTRINAL": "Manual de primeros auxilios para profesores de formaci\u00f3n vial. Direcci\u00f3n General de Tr\u00e1fico"
 },
 {
  "COD": "66269",
  "PREGUNTA": "\u00bfC\u00f3mo se ejecuta la maniobra frente-ment\u00f3n en un herido inconsciente?",
  "A": "Empujando el ment\u00f3n hacia abajo y la frente hacia delante.",
  "B": "Empujando el ment\u00f3n hacia arriba y la frente hacia atr\u00e1s.",
  "C": "Empujando la frente y el ment\u00f3n hacia abajo.",
  "D": "Esta maniobra no se debe practicar en heridos que no est\u00e9n conscientes, dado el riesgo de causarles lesiones de m\u00e9dula.",
  "SOLUCION": "B",
  "RULE": "Sin referencia",
  "REFERENCIA_DOCTRINAL": "Manual b\u00e1sico de primeros auxilios. Cruz Roja Espa\u00f1ola"
 },
 {
  "COD": "66270",
  "PREGUNTA": "\u00bfQu\u00e9 es lo primero que se debe hacer con un herido inconsciente tras aplicarle la maniobra frente-ment\u00f3n?",
  "A": "Colocarlo en posici\u00f3n de defensa.",
  "B": "Colocarlo boca abajo y con los brazos  por encima de la cabeza doblados en \u00e1ngulo de 90 grados.",
  "C": "Comprobar si tiene objetos extra\u00f1os en la boca y extraerlos, si es el caso y resulta posible.",
  "D": "Practicarle el boca a boca.",
  "SOLUCION": "C",
  "RULE": "Sin referencia",
  "REFERENCIA_DOCTRINAL": "Manual b\u00e1sico de primeros auxilios. Cruz Roja Espa\u00f1ola"
 },
 {
  "COD": "66271",
  "PREGUNTA": "En la prestaci\u00f3n de los primeros auxilios, \u00bfc\u00f3mo se comprueba si un herido inconsciente respira?",
  "A": "Acercando el o\u00eddo a su boca y su nariz.",
  "B": "Observando si se mueve el t\u00f3rax y el abdomen.",
  "C": "Intentando sentir en la mejilla el aire expirado.",
  "D": "Todas las respuestas son correctas.",
  "SOLUCION": "D",
  "RULE": "Sin referencia",
  "REFERENCIA_DOCTRINAL": "Manual b\u00e1sico de primeros auxilios. Cruz Roja Espa\u00f1ola"
 },
 {
  "COD": "66272",
  "PREGUNTA": "Si un herido en accidente de tr\u00e1fico sufre una hemorragia grave, como primera medida:",
  "A": "hay que hacer compresi\u00f3n sobre el punto de sangrado, sin levantar el ap\u00f3sito en ning\u00fan caso.",
  "B": "hay que hacer compresi\u00f3n sobre el punto de sangrado, cambiando el ap\u00f3sito cuando se empape de sangre.",
  "C": "hay que ponerlo en posici\u00f3n lateral de seguridad.",
  "D": "hay que hacerle un torniquete.",
  "SOLUCION": "A",
  "RULE": "Sin referencia",
  "REFERENCIA_DOCTRINAL": "Manual b\u00e1sico de primeros auxilios. Cruz Roja Espa\u00f1ola"
 },
 {
  "COD": "66273",
  "PREGUNTA": "Para colocar a un herido inconsciente en posici\u00f3n lateral de seguridad:",
  "A": "el brazo m\u00e1s pr\u00f3ximo a nosotros se extiende hacia arriba y la pierna contraria se flexiona.",
  "B": "el brazo m\u00e1s alejado de nosotros se extiende hacia arriba y la pierna contraria se flexiona.",
  "C": "los dos brazos se extienden hacia arriba y la pierna m\u00e1s alejada de nosotros se flexiona.",
  "D": "el brazo m\u00e1s pr\u00f3ximo a nosotros se extiende hacia arriba y las dos piernas se flexionan.",
  "SOLUCION": "A",
  "RULE": "Sin referencia",
  "REFERENCIA_DOCTRINAL": "Manual b\u00e1sico de primeros auxilios. Cruz Roja Espa\u00f1ola"
 },
 {
  "COD": "66274",
  "PREGUNTA": "En la prestaci\u00f3n de los primeros auxilios, la valoraci\u00f3n secundaria de un herido:",
  "A": "consiste en aplicar las t\u00e9cnicas necesarias para conservar las constantes vitales.",
  "B": "consiste en una exploraci\u00f3n detallada para determinar el alcance de las lesiones.",
  "C": "consiste en una exploraci\u00f3n r\u00e1pida para identificar las heridas m\u00e1s graves.",
  "D": "es la que realiza el equipo m\u00e9dico que acude a la llamada de socorro, tras haberse aplicado los primeros auxilios por los testigos del accidente.",
  "SOLUCION": "B",
  "RULE": "Sin referencia",
  "REFERENCIA_DOCTRINAL": "Manual b\u00e1sico de primeros auxilios. Cruz Roja Espa\u00f1ola"
 },
 {
  "COD": "66275",
  "PREGUNTA": "En la prestaci\u00f3n de los primeros auxilios, \u00bfqu\u00e9 comprobaciones incluye la valoraci\u00f3n secundaria de un herido?",
  "A": "coloraci\u00f3n de la piel.",
  "B": "temperatura.",
  "C": "estado de la cabeza.",
  "D": "Todas las respuestas son correctas.",
  "SOLUCION": "D",
  "RULE": "Sin referencia",
  "REFERENCIA_DOCTRINAL": "Manual b\u00e1sico de primeros auxilios. Cruz Roja Espa\u00f1ola"
 },
 {
  "COD": "66276",
  "PREGUNTA": "\u00bfQu\u00e9 aspectos hay que revisar para hacer el examen neurol\u00f3gico de un herido al prestarle primeros auxilios?",
  "A": "Nivel de consciencia.",
  "B": "Orientaci\u00f3n espacial.",
  "C": "Pupilas.",
  "D": "Todas las respuestas son correctas.",
  "SOLUCION": "D",
  "RULE": "Sin referencia",
  "REFERENCIA_DOCTRINAL": "Manual b\u00e1sico de primeros auxilios. Cruz Roja Espa\u00f1ola"
 },
 {
  "COD": "66277",
  "PREGUNTA": "\u00bfCu\u00e1l es la frecuencia respiratoria normal?",
  "A": "De 60 a 100 veces por minuto.",
  "B": "De 40 a 60 veces por minuto.",
  "C": "De 12 a 20 veces por minuto.",
  "D": "De 10 a 30 veces por minuto.",
  "SOLUCION": "C",
  "RULE": "Sin referencia",
  "REFERENCIA_DOCTRINAL": "Manual b\u00e1sico de primeros auxilios. Cruz Roja Espa\u00f1ola"
 },
 {
  "COD": "66278",
  "PREGUNTA": "En la prestaci\u00f3n de los primeros auxilios, la t\u00e9cnica del relleno capilar se utiliza para:",
  "A": "insuflar aire en los pulmones.",
  "B": "taponar las heridas que sangran mucho.",
  "C": "conocer la capacidad del sistema circulatorio para restablecer el riego en una zona.",
  "D": "taponar las heridas que no sangran en exceso.",
  "SOLUCION": "C",
  "RULE": "Sin referencia",
  "REFERENCIA_DOCTRINAL": "Manual b\u00e1sico de primeros auxilios. Cruz Roja Espa\u00f1ola"
 },
 {
  "COD": "66279",
  "PREGUNTA": "En la prestaci\u00f3n de los primeros auxilios, \u00bfc\u00f3mo se llama la t\u00e9cnica que permite conocer la capacidad del sistema circulatorio para restaurar el riego en una zona?",
  "A": "Boca a boca.",
  "B": "Relleno capilar.",
  "C": "Transfusi\u00f3n.",
  "D": "Resucitaci\u00f3n cardiopulmonar.",
  "SOLUCION": "B",
  "RULE": "Sin referencia",
  "REFERENCIA_DOCTRINAL": "Manual b\u00e1sico de primeros auxilios. Cruz Roja Espa\u00f1ola"
 },
 {
  "COD": "66283",
  "PREGUNTA": "En las hemorragias venosas:",
  "A": "la sangre es menos oscura que en las arteriales.",
  "B": "la sangre fluye coincidiendo con los latidos del coraz\u00f3n.",
  "C": "la sangre fluye de modo continuo.",
  "D": "Las respuestas A y C son correctas.",
  "SOLUCION": "C",
  "RULE": "Sin referencia",
  "REFERENCIA_DOCTRINAL": "Manual b\u00e1sico de primeros auxilios. Cruz Roja Espa\u00f1ola"
 },
 {
  "COD": "66284",
  "PREGUNTA": "Si la presi\u00f3n sobre el punto de sangrado no es suficiente para cortar una hemorragia externa:",
  "A": "se elevar\u00e1 la zona afectada sin dejar de presionar sobre la herida.",
  "B": "se elevar\u00e1 la zona afectada dejando de hacer presi\u00f3n sobre la herida.",
  "C": "se procurar\u00e1 situar la zona afectada a la misma altura que el coraz\u00f3n para que la presi\u00f3n se estabilice.",
  "D": "se situar\u00e1 la zona afectada lo m\u00e1s bajo posible, aumentando la presi\u00f3n sobre la herida.",
  "SOLUCION": "A",
  "RULE": "Sin referencia",
  "REFERENCIA_DOCTRINAL": "Manual b\u00e1sico de primeros auxilios. Cruz Roja Espa\u00f1ola"
 },
 {
  "COD": "66285",
  "PREGUNTA": "En caso de hemorragia en una pierna:",
  "A": "se presionar\u00e1 sobre la arteria humeral.",
  "B": "se presionar\u00e1 sobre la arteria femoral.",
  "C": "se presionar\u00e1 sobre la arteria car\u00f3tida.",
  "D": "no se debe presionar nunca en la arteria, pues saldr\u00e1 m\u00e1s sangre.",
  "SOLUCION": "B",
  "RULE": "Sin referencia",
  "REFERENCIA_DOCTRINAL": "Manual b\u00e1sico de primeros auxilios. Cruz Roja Espa\u00f1ola"
 },
 {
  "COD": "66286",
  "PREGUNTA": "\u00bfQu\u00e9 material es m\u00e1s adecuado para efectuar un torniquete?",
  "A": "Una cuerda fina.",
  "B": "Un cable.",
  "C": "Una goma el\u00e1stica.",
  "D": "Una cuerda gruesa.",
  "SOLUCION": "C",
  "RULE": "Sin referencia",
  "REFERENCIA_DOCTRINAL": "Manual b\u00e1sico de primeros auxilios. Cruz Roja Espa\u00f1ola"
 },
 {
  "COD": "66287",
  "PREGUNTA": "Una vez efectuado un torniquete:",
  "A": "hay que tapar la zona si hace fr\u00edo.",
  "B": "hay que tapar la zona si hace mucho sol para que la radiaci\u00f3n solar no impacte sobre la herida.",
  "C": "hay que tapar la zona si lo pide el herido.",
  "D": "no se debe tapar nunca para que no pase desapercibido.",
  "SOLUCION": "D",
  "RULE": "Sin referencia",
  "REFERENCIA_DOCTRINAL": "Manual b\u00e1sico de primeros auxilios. Cruz Roja Espa\u00f1ola"
 },
 {
  "COD": "66288",
  "PREGUNTA": "El shock hipovol\u00e9mico se produce por:",
  "A": "reducci\u00f3n del volumen de sangre en el sistema circulatorio.",
  "B": "falta de riego de \u00f3rganos vitales.",
  "C": "afluencia excesiva de sangre al cerebro.",
  "D": "Las respuestas A y B son correctas.",
  "SOLUCION": "D",
  "RULE": "Sin referencia",
  "REFERENCIA_DOCTRINAL": "Manual b\u00e1sico de primeros auxilios. Cruz Roja Espa\u00f1ola"
 },
 {
  "COD": "66289",
  "PREGUNTA": "\u00bfC\u00f3mo hay que colocar a un herido que est\u00e9 sufriendo un shock hipovol\u00e9mico?",
  "A": "Con las piernas levantadas 45 grados respecto de la cabeza.",
  "B": "Con la cabeza elevada 45 grados respecto de las piernas.",
  "C": "Con la cabeza elevada 45 grados respecto de las piernas y los brazos levantados a su vez por encima de la cabeza.",
  "D": "Tumbado, con la cabeza a la misma altura que las piernas.",
  "SOLUCION": "A",
  "RULE": "Sin referencia",
  "REFERENCIA_DOCTRINAL": "Manual b\u00e1sico de primeros auxilios. Cruz Roja Espa\u00f1ola"
 },
 {
  "COD": "66290",
  "PREGUNTA": "\u00bfQu\u00e9 es una fractura de hueso abierta?",
  "A": "Aquella en la que los tendones del hueso fracturado tambi\u00e9n se han roto.",
  "B": "Aquella en la que la piel que recubre el hueso fracturado tambi\u00e9n presenta da\u00f1o.",
  "C": "Aquella que presenta los fragmentos del hueso muy separados entre s\u00ed.",
  "D": "Aquella que todav\u00eda no ha sido reducida.",
  "SOLUCION": "B",
  "RULE": "Sin referencia",
  "REFERENCIA_DOCTRINAL": "Manual b\u00e1sico de primeros auxilios. Cruz Roja Espa\u00f1ola"
 },
 {
  "COD": "66291",
  "PREGUNTA": "\u00bfQu\u00e9 se puede hacer para auxiliar a una persona que haya sufrido la fractura de un hueso?",
  "A": "Sujetarle el hueso fracturado con nuestras manos.",
  "B": "Ponerle un cabestrillo si se trata de un brazo.",
  "C": "Ponerle una f\u00e9rula si se trata de una pierna.",
  "D": "Todas las respuestas son correctas.",
  "SOLUCION": "D",
  "RULE": "Sin referencia",
  "REFERENCIA_DOCTRINAL": "Manual b\u00e1sico de primeros auxilios. Cruz Roja Espa\u00f1ola"
 },
 {
  "COD": "66295",
  "PREGUNTA": "Son signos de infecci\u00f3n de una herida:",
  "A": "bajada de la tensi\u00f3n arterial.",
  "B": "hipotermia.",
  "C": "calor en la zona de la herida.",
  "D": "aceleraci\u00f3n del pulso.",
  "SOLUCION": "C",
  "RULE": "Sin referencia",
  "REFERENCIA_DOCTRINAL": "Manual b\u00e1sico de primeros auxilios. Cruz Roja Espa\u00f1ola"
 },
 {
  "COD": "66296",
  "PREGUNTA": "En primeros auxilios, el tratamiento de una herida superficial conlleva:",
  "A": "limpiar la herida con agua.",
  "B": "retirar cuerpos extra\u00f1os que no ofrezcan dificultad.",
  "C": "dejarla al descubierto si no expulsa l\u00edquidos.",
  "D": "Todas las respuestas son correctas.",
  "SOLUCION": "D",
  "RULE": "Sin referencia",
  "REFERENCIA_DOCTRINAL": "Manual b\u00e1sico de primeros auxilios. Cruz Roja Espa\u00f1ola"
 },
 {
  "COD": "66298",
  "PREGUNTA": "Las probabilidades de supervivencia en caso de parada cardiorrespiratoria disminuyen con cada minuto sin aporte de ox\u00edgeno al cerebro:",
  "A": "un 5 %.",
  "B": "un 20 %.",
  "C": "un 30 %.",
  "D": "un 10 %.",
  "SOLUCION": "D",
  "RULE": "Sin referencia",
  "REFERENCIA_DOCTRINAL": "Manual b\u00e1sico de primeros auxilios. Cruz Roja Espa\u00f1ola"
 },
 {
  "COD": "66299",
  "PREGUNTA": "En la reanimaci\u00f3n cardiopulmonar, las compresiones tor\u00e1cicas se aplican a un ritmo de:",
  "A": "50 veces por minuto.",
  "B": "100 veces por minuto.",
  "C": "30 veces por minuto.",
  "D": "80 veces por minuto.",
  "SOLUCION": "B",
  "RULE": "Sin referencia",
  "REFERENCIA_DOCTRINAL": "Manual b\u00e1sico de primeros auxilios. Cruz Roja Espa\u00f1ola"
 },
 {
  "COD": "66300",
  "PREGUNTA": "En la reanimaci\u00f3n cardiopulmonar, las compresiones tor\u00e1cicas se aplican con los brazos:",
  "A": "perpendiculares al pecho.",
  "B": "inclinados respecto del pecho, empujando hacia la zona de la cabeza.",
  "C": "inclinados respecto del pecho, empujando hacia la zona derecha del cuerpo.",
  "D": "inclinados respecto del pecho, empujando hacia la zona izquierda del cuerpo.",
  "SOLUCION": "A",
  "RULE": "Sin referencia",
  "REFERENCIA_DOCTRINAL": "Manual b\u00e1sico de primeros auxilios. Cruz Roja Espa\u00f1ola"
 },
 {
  "COD": "66301",
  "PREGUNTA": "\u00bfQu\u00e9 operaciones se ejecutan durante la reanimaci\u00f3n cardiopulmonar para efectuar las insuflaciones boca a boca?",
  "A": "Aplicar la maniobra frente-ment\u00f3n.",
  "B": "Pinzar la nariz.",
  "C": "Comprobar que el pecho se eleva tras insuflar el aire.",
  "D": "Todas las respuestas son correctas.",
  "SOLUCION": "D",
  "RULE": "Sin referencia",
  "REFERENCIA_DOCTRINAL": "Manual b\u00e1sico de primeros auxilios. Cruz Roja Espa\u00f1ola"
 }
]